[
  {
      "_id": "66861115ff09dddc5fdabbb6",
      "name": "Монголын уран зохиол",
      "description": "Монголын уран зохиолын дээжис",
      "photo": "no-photo.jpg",
      "createdAt": "2024-07-04T03:03:49.620Z",
      "slug": "mongolyn-uran-zohiol",
      "averageRating": 6,
      "averagePrice": 90991,
      "__v": 0
  },
  {
      "_id": "6686117fff09dddc5fdabbba",
      "name": "Гадаад хэлээр",
      "description": "Гадаад хэл дээрх номнууд",
      "photo": "no-photo.jpg",
      "createdAt": "2024-07-04T03:05:35.324Z",
      "slug": "gadaad-heleer",
      "averageRating": 1,
      "averagePrice": 52688,
      "__v": 0
  },
  {
      "_id": "6686119fff09dddc5fdabbbd",
      "name": "Эрүүл мэнд",
      "description": "Эрүүл мэндийн зөвөлгөөнүүд",
      "photo": "no-photo.jpg",
      "createdAt": "2024-07-04T03:06:07.337Z",
      "slug": "eruul-mend",
      "averageRating": 9,
      "averagePrice": 26074,
      "__v": 0
  },
  {
      "_id": "668611c9ff09dddc5fdabbc1",
      "name": "Уран зохиол",
      "description": "Дэлхийн сонгодог уран зохиолууд",
      "photo": "no-photo.jpg",
      "createdAt": "2024-07-04T03:06:49.394Z",
      "slug": "uran-zohiol",
      "averageRating": 1,
      "averagePrice": 27955,
      "__v": 0
  },
  {
      "_id": "668611f3ff09dddc5fdabbc4",
      "name": "Best seller",
      "description": "Шилдэг борлуулалттай зохиолууд",
      "photo": "no-photo.jpg",
      "createdAt": "2024-07-04T03:07:31.522Z",
      "slug": "best-seller",
      "averageRating": 1,
      "averagePrice": 82665,
      "__v": 0
  }
]